Fruits,Apple,Apricots,Avocado,Banana,Blackberries,Blueberries,Cantaloupe,Cherries,Clementine,Cranberries,Plum,Pomegranate,Prunes,Raisins,Raspberries,Rhubarb,Tangerine,Dates,Figs,Grapefruit,Grapes,Lemon,Lime,Lychees,Mango,Melon,Nectarine,Orange,Papaya,Peach,Pear,Pineapple,Plantain,Strawberries,Watermelon,,,,,,,,,
Vegetables,Artichoke hearts,Asparagus,Beans,Bean sprouts,Beets,Black-eyed peas,Bok Choy,Broccoli,Brussels sprouts,Cabbage,Carrots,Cauliflower,Celery,Chickpeas,Corn,Cucumber,Edamame,Eggplant,Garbanzo beans,Kale,Lettuce,Mushrooms,Olives,Onions,Parsnip,Peas,Peppers,Pickles,Potatoes,Pumpkin,Radishes,Sauerkraut,Seaweed,Snowpeas,Soybeans,Spinach,Split peas,Squash,Sweet potato,Tomatoes,Tomato juice,Turnip,Zucchini ,Zucchini sticks 
Grains,Bread,Bagel,Cornmeal,Couscous,Croissantss,Croutons,Flaxseeds,Flour,Graham crackers,Macaroni,Pasta,Tortilla,Pita,Popcorn,Pretzels,Quinoa,Rice,Rice flour,Rice noodles,Soba noodles,Soy flour,Spaghetti,Tapioca,,,,,,,,,,,,,,,,,,,,,
Proteins,Chicken,Beef,Pork,Tofu,Lamb,Salmon,Trout,Almonds,Pecans,Cashews,Pistachios,Halibut,Snapper,Grouper,Cod,Shrimp,Lobster,Crab,Hazelnuts,,,,,,,,,,,,,,,,,,,,,,,,,
Dairy,Blue cheese,Brie,Cheddar,Cheese,Condensed milk,Cottage cheese,Cream,Cream cheese,Evaporated milk,Feta,Gouda,Ice cream,Milk,Mozzarella,Parmesan,Sour cream,Swiss cheese,Yogourt ,Goat cheese,,,,,,,,,,,,,,,,,,,,,,,,,
Condiments,Almond butter,Barbecue sauce,Cashew butter,Caviar,Honey,Hummus,Jam,Jelly,Ketchup,Maple syrup,Mayonnaise,Mustard,Peanut butter,Soy sauce,Tomato sauce,White sauce ,,,,,,,,,,,,,,,,,,,,,,,,,,,,
Beverages,Beer,Coffee,Cola,Eggnog,Tea,Water,Wine ,Orange juice,,,,,,,,,,,,,,,,,,,,,,,,,,,,,,,,,,,,
Fats,Butter,Oil,Shortening,Margarine,Chocolate,Butterscotch,Caramel,Whipped cream,Chocolate sauce,Sponge cake,Sugar,White Chocolate,Dark chocolate,Powdered Sugar,Brown Sugar,,,,,,,,,,,,,,,,,,,,,,,,,,,,,
